Análise exploratória de dados
…
avaliacoes <- avaliacoes %>% 
  select(avaliador = `Matricula`, 
         id = `ID da reclamação`, 
         insatisfacao = `Grau de insatisfação`)

2. Será que podemos confiar em nossas avaliações humanas?

2.1. Alguma avaliação foge dos valores de 1 a 5?

avaliacoes %>% 
  filter((id %in% 1:5 ))

## # A tibble: 27 x 3
##    avaliador    id insatisfacao
##        <int> <int>        <int>
##  1 113110007     2            4
##  2 113111448     2            4
##  3 113210425     5            3
##  4 114110439     3            2
##  5 114110485     3            2
##  6 114111357     2            5
##  7 114111370     1            5
##  8 114111371     5            5
##  9 114210164     2            5
## 10 114210300     3            2
## # ... with 17 more rows
…
